<?xml version="1.0" encoding="UTF-8" standalone="no"?>
<svg xmlns:dc="http://purl.org/dc/elements/1.1/" xmlns:cc="http://creativecommons.org/ns#" xmlns:rdf="http://www.w3.org/1999/02/22-rdf-syntax-ns#" xmlns:svg="http://www.w3.org/2000/svg" xmlns="http://www.w3.org/2000/svg" xmlns:xlink="http://www.w3.org/1999/xlink" viewBox="0 0 260 32" height="32" width="260" version="1.1" id="svg3344">
  <metadata id="metadata3350">
    <rdf:RDF>
      <cc:Work rdf:about="">
        <dc:format>image/svg+xml</dc:format>
        <dc:type rdf:resource="http://purl.org/dc/dcmitype/StillImage"/>
        <dc:title/>
      </cc:Work>
    </rdf:RDF>
  </metadata>
  <defs id="defs3348"/>
  <image y="0" x="0" id="image3352" xlink:href="data:image/png;base64,iVBORw0KGgoAAAANSUhEUgAAAQQAAAAgCAYAAAD0QgaeAAAAGXRFWHRTb2Z0d2FyZQBBZG9iZSBJ bWFnZVJlYWR5ccllPAAACwZJREFUeNrsXXmQXEUZ7zfzNtndZLNsTCIBgnihUfCAQARvChARikPx KhXLK2oprldJvFEob0tBQUs0WlqKt0ZRqwSPqKUxeEQwHrgxEaOBYNhNdjd7zMzz+9X8urZr0t3v zduZee9l56v6/bE7Mz39ve7v9x19TDg4/EPlkV7BkwVPE5wsWCXoEUSCQFARHFLpBe0sJiL+D+1O CyYFdwu2C34guM14Tyvk0YILBKcIVguWGLp1WqD/7YJnC2ab/NyZgnM5PiupR6CyEXz3JwUfavJz DxCcL3iC4IGCwQ70Vc/fUcG/BVsFPxL8rcXjCp3OEZwkWCFYaowPbCcULOK4oy+7Bb9iX3Y72sU4 n0fbfLBgiG1EFvuaENwnuFPwM8EtgjHnQ3EQAjp8qWCYE60smBFUG740aMHkiyyK6HZDYkqwRfB+ wbZ5ft9jBW8SnC3o56SAXrWMyEBxMHcJnigYT/iZiwWvEzyGz2jW0CMrGRDcIHhjwvcfLXiD4DJO 8gr16KQOZWOewVC+x3m2a57twn6uoONxjU/JmP8B/+5hn/YJvi74sOAevh9k8krBSwRr2FbFYpeq 4Tu0jpCdgk8LPkfHG0sIK9iJS1sQAbSSzZeyL+8TfCxlOzCgK+nJJjI2nkZCwECdxX75BN7gg4Ln cHymMiQyGyEgQtiY4L2Iaj7KiGCcumQtZc6z/9IZ3pyijZUcn2fOc3xC9uUfgteSIK4XnM45MptS R0QtfYJb2e7uxi9tDN2+yDB6TOVH8EAPcsCuJmm9vYnPlxjGbuDkO6iKKcdwfNYLDuSICJqV5wmu 5biM5qhfVfYHpPt5wWsEX23i88cJviRY14Lx0enMsYIvkwAGW/C8pomnCL4teK7g76ahaFku2MSQ eiynE6lKYx6mp08q7xS8ioNULagRIaq5kWQwVmAyuIBkENF75k0CI5RGJPqkhJ9bRhI5tcXjM01H 2NfiaP0A6w+bGNUcRghXG54nz1Kjl38zCytxchFThSIbEeRtLCKNFViHNQynS/MIeTslqJn1MrIc SvD+9wjOaJP91NrgyALaEWocH2hMGc5j6BCnjC56BB0w+oonx68y736H4BeevBs57VvZTi0Hevny ul7P95/OQlJcqqOLR1np0cvn6BKQ+PExpBawjdCYC60WXcyrkphcjgIrXY+kQ3m3pz1EES9IYD+h Ra+SMacrKZyWLr6XHe1WYuozB1jv2Cz4ju7cBjZQ8yiCkOV/LHJMtXHSRSymnKDmin82Qfj0KMEl zNtsgmW8R3gGKuB34PURthlkRAh/9uj6UqOfrvGBMWKZ9j+c5FnogVWbuxyvnchozbeK0sfJizl2 j5EqtdIrztLQ4VDuz3lW9oTjGJMXMh3Y5XjPBpLYtIeooRuKlXtoZ0tpcxMkg+Xsi0o4D/WSPcYe hcF9bG8p259gG6tZe5ohAks7eD9WLzaHDBnWex7IIjaOpZhvUqlqmwkB/Xq4qi9JXcS+RY5I4WIP IVziYceARoTPflzwzzbrlURvm46rWQCadHyuh+NzleAbgv0Zp0Yup/J0wf080QEM/7eCdwl+x8mr DM/XyudcMwhoHdOx9Y5nXCFxoPbxCcvrDxE83mM/PXSg1whuolMNjIhUL7NiLp5J/U/yjLfWoZ9E gFTlFs4BHelGRuRzFG1kI1MfG2mhf6gdnhLyQQw4vE+ZYerlDM07mb/9SfBiGuvlDu85zYeH9ey9 Da+Bbdd6WBsP9DqmHXkW7DNY5ZggJU7Yl3NS5Fke5yFnGOZvVH0pdcxC+u2SQ5zXzxJ8i+RwyOF4 1jsIYR29+0HH+OCzKGjfHKPXJMfwjyT2k5W76IrI4F/s94gl1TYFDgJ7DrDxDasVyyzv0RHLGSXm SJHHaDZ1mAwa5RqGaj2OgRpiXtoox5Mda44HuoNRT97lRHX48rBpSD8tABksZkGx4ojUMEYfUdkV TMcNY7dFiLN0MLY5uNYTVcJ+vqua289wL4t8kafdRXRmI020u4223OeJOtaGZLfIU7z7fcaTCbnk HRyQWUceZasCLzeKR7ZJiMk3SNIIMtaxxP7YDGKlZ3wQwW0tAKktYRRac+hwNz1jlnIb59qQw4Mu ox6jTYwP5Ncp+vIH1gSWW/pSIoGl2bG71agjRBYdV4YeZQJ+eH8OJtS9MUY7YPmfr2qPUAwFyV+q fOxWRF+3M9ebtYyDL1/fWwBC6KUx1RxkeEAl37LdLhklVngimbKj/y6ng7Hck6Ivk8peADTbTRNN 7VVz5yds5x7C0PNhzSJF2MgzmfJz/TnpP0LAY2g4Sdfndag9U4DxKSl3cTDISR/10p3P20cJ/2e+ lqfxqcb1N0w48bKWoE0PPS9kVyNzN6NHpOb23hchZSinMKhOk/JiVezNa0nsKIhj7q7kY6BmUhCb 3pSSdynnKBKII9kFLV1CyM9EDFMadxEm8QTz8qA71F1C6Eoyo9YhayvTqaLkrl3JiYQLWPdySgNs h+izDM0ajd6RVuRQvBs1dAmhI+I7KKLXvu9Urd8am5YQdqj4y1EaRRcj8y4z7OcSB1mUckAMUQJC DrqEUFwZV3O7vSKLAeJSiMsKoEfcKc0TCqKD65wI/o8zDtjgszvDPmKT2oDneRdlCb5bQ3DIqGcA cb4Bt0I9rAB67PN4JqQLz2C6kWeZJEGXHIQAMjg/4z7iIuEVjjmjN09NdAmhuILDH/sdKYH2SlcV wJj+qtyHgrDj8lTqkWc5RO8fegj69ap+UCgLwfcOK/dBOJxh2KmKUa/ppgwOwb0AuGPgLIdBge1x MQwOnnxK1ffST2aUJ+rba+6zvLaNxnSssu9TQJ9xHv+hqn6b7h1sqycDsitRB9vJPxyQu9BTY8C+ /a8JPiP4saqfK2jXcXS9qQtO4Rw+v0HlvucDem1RC0CO9FUGXJB5tud1kAKOF9/IFGNGZXtByoUW LwQD+z492IxjckOPp6r6vQn7ObHLyn97UTsEuyZvcEQsOPWHm4eGlP28Brwzio4bqauuAbWThPF9 /YxgXGSA5WDclbG5SwjFF5wrf5Gq/1jGuCfs1gOf1TIkvnsVv98Wln5B1a/o6vOkDzq6gVEOGGTR SRlQ7vMhexiJvVe5D+ZUGF1oY2231IxoxuUI+tjvfQuBEI70jUlVepzRBN5SV8Kzgu9uPyyPXqvi zy3oSri+Ry8LPXyrItcxHVim4g8FdaKvcX1AP29lGqO6hHBkCG5eupJeuMgREa4Ev0kluwE4rwKS QvFwhOSW592LA+znsFoAxcSFRAiQrwjeQkIo6ok2eN4rSApHqXxsqEoju5jG3UUPnDdB6oACI37j 8fmsH6guIRx5ggo8bs/dSy/bk8OJGFfQRPHwFap+JXiVBlVEYkDUhstgtpDcelU+bq3SRUYUo1Hg 3aEWmGiP2W/J/fR20rxs7XXduLOkiVQAvyKNG31frep30a9RcxdhRhnrlzRyQdiNHw/BrwOjan8u CS4PO+n6mZolkRGOAYqlL1P1TWI96vAf3W33SoOe5wdJUNfz2SaVRcbcrBnEHswzTe0nzB+/1RfN pN3qXWKbodFmzfh/X0gWhKeZcjysPPySEzbn4CJR27793ib7iDMMuOoatznj+uzTBA/KOKddTB2b 2Ql3Ow0JfceSI67RPlrZr8fqJCHsbOL9WGr8LFO604yxMIuOfW3UaYLzAUu+uG/wL6r5K/Vwdfxx au6sxhSNWBtvmtUJfP7nqn79e5XtBsb8mFLpdk3CTn5CotLkhbYnScbb/y/AAAkqHX31zZDJAAAA AElFTkSuQmCC " preserveAspectRatio="none" height="32" width="260"/>
  <path id="path3904" d="M 0,21.467881 0.02369172,8.6613577 0.65799757,5.9024325 2.3821226,3.5936504 5.4316893,0.93581538 8.2443387,-0.03990732 25,0.01032727 l 15.5,0.0028511 3.535667,0.52594979 2.990469,2.64252314 1.636669,1.9890713 1.304984,3.2287619 0.303477,11.6093345 0.06894,12.044902 -5.023196,-0.0088 -4.755154,-0.07583 0.04794,-10.877813 -0.05257,-10.475752 -0.817297,-1.1067224 -1.185855,-1.0062073 -14.107836,-0.06701 -11.881799,0 -2.320983,0.9537819 -0.8930338,2.5028598 0,10.089433 0.071075,10.04205 L 4,32 0,32 Z m 62.110446,9.942334 C 60.898005,31.175289 58.183026,29.18414 56.768153,27.396876 L 54.289248,23.751782 53.400706,15.817899 54.09951,8.4052331 55.286734,5.9291466 57.089941,3.5478269 59.288073,1.1882096 62.339106,-0.05789676 81.25,0.00658921 100.01213,-0.02369172 100.02827,4 99.99753,8.020201 82.138011,8.012131 66.992018,8.0223218 65.384589,8.7024707 c -0.859598,0.3637202 -1.542034,1.0671726 -1.697526,1.4787823 l -0.196837,1.822997 17.454327,-0.0083 19.060797,7.67e-4 0.0269,3.717128 -0.0101,4.284185 -19.0095,0.01646 -16.744339,0.0172 -0.03633,0.744644 c -0.02144,0.439477 -0.276314,1.541394 0.536631,2 l 1.258546,1.239182 16.221831,0.0032 17.788192,-0.03483 -0.04246,4.030391 0.0221,4.001595 L 81.75,31.93661 64.5,31.87322 Z m 48.524774,-0.358538 -2.53804,-2.254421 -1.82114,-2.274611 -1.92819,-3.59326 -0.74147,-5.163267 0.21849,-5.266121 0.13138,-4.6335464 2.67777,-3.9634433 2.62691,-2.7109559 4.10113,-1.23672908 17.4742,-0.05934677 18.61141,0.2249539 -0.01,3.78430065 0.0573,4.5424358 -17.75813,-0.067653 -15.95757,-0.067653 -1.43953,1.3454143 -0.87093,1.7718648 -0.01,4.251822 0.01,5.103328 1.0706,1.56022 1.82874,1.228537 16.02088,0 16.96854,-0.142151 -0.0735,4.318602 0.0687,4.365984 -17.66337,-0.04462 -17.94767,-0.04462 z m 49.66311,0.105409 -2.25894,-2.043979 -3.16037,-2.998563 -1.3124,-3.188093 -0.18983,-8.235147 0.14186,-7.8797721 3.57037,-4.3285062 4.54173,-2.45686014 16.86925,-0.02369172 16.94032,-0.02369173 4.89711,3.21499529 3.07285,4.3995813 -0.0714,7.2400953 -0.024,7.737621 -1.3383,3.760319 -3.02042,2.788957 -2.87739,2.150577 L 192.06424,32 178.28212,31.96086 163.55233,32.063868 Z m 33.14629,-8.736154 1.08155,-0.844624 -0.11846,-5.647383 -0.0474,-5.410466 -0.93938,-1.0578501 -1.03416,-0.9867745 -13.72093,-0.023692 -13.62616,-0.1184586 -1.2237,0.9630828 -1.41322,1.1052334 0.0237,5.821385 0.0375,5.110633 1.33344,1.13774 1.60785,1.042974 13.52631,0.07779 13.21832,-0.08805 z m 15.20529,9.616009 -0.6992,0.01568 0.0205,-11.025098 0.0172,-11.005637 0.71434,-3.2357163 1.99266,-2.8931498 3.02538,-2.4537255 2.87461,-1.43181828 6.4046,0.00242268 6.42139,-0.0143299 2.59751,0.9745196 2.01115,2.029932 1.94692,-1.985835 2.9018,-1.03093808 6.32157,0.02049064 6.63987,-0.04651967 3.1288,1.06422801 3.01893,2.87254 1.51038,3.059709 0.51843,2.340315 L 260,21.467881 260,32 l -4,0 -4.61598,0 -0.1031,-10.003749 -0.0897,-10.004719 -1.03016,-2.9766946 -1.14454,-0.9542413 -3.70155,-0.059799 -4.75624,0.00102 -1.19572,1.0164992 -0.32064,1.4172247 -0.0474,10.728924 0.0237,10.847384 L 234,32 l -4.55284,0 -0.13402,-10.8 -0.10051,-10.8 -0.19246,-1.3825947 -1.98352,-1.0172294 -3.06814,0.00345 -3.96224,-0.00478 -2.00661,1.0118521 -0.97842,2.990765 -0.0158,9.98177 0.001,10.024584 -4.33985,-0.0078 c -1.83334,-0.0033 -3.18477,0.11059 -3.48067,0.05369 z" style="fill:#247cbc"/>
</svg>